<svg width="30" height="26" viewBox="0 0 30 26" fill="none" xmlns="http://www.w3.org/2000/svg">
<g clip-path="url(#clip0)">
<path d="M14.1282 17.4781H11.0747V19.6448H15.8304V5.77808H19.3457V3.75586H14.1282V17.4781Z" fill="#0E0A32" stroke="#0E0A32"/>
<g filter="url(#filter0_d)">
<path d="M8.97193 0.289062H2.8037C1.87463 0.289062 1.12146 1.0651 1.12146 2.0224V8.37795C1.12146 9.33525 1.87463 10.1113 2.8037 10.1113H8.97193C9.901 10.1113 10.6542 9.33525 10.6542 8.37795V2.0224C10.6542 1.0651 9.901 0.289062 8.97193 0.289062Z" fill="#0E0A32"/>
</g>
<g filter="url(#filter1_d)">
<path d="M27.1962 0.289062H21.0279C20.0989 0.289062 19.3457 1.0651 19.3457 2.0224V8.37795C19.3457 9.33525 20.0989 10.1113 21.0279 10.1113H27.1962C28.1252 10.1113 28.8784 9.33525 28.8784 8.37795V2.0224C28.8784 1.0651 28.1252 0.289062 27.1962 0.289062Z" fill="#0E0A32"/>
</g>
<g filter="url(#filter2_d)">
<path d="M8.97193 14.1558H2.8037C1.87463 14.1558 1.12146 14.9318 1.12146 15.8891V22.2446C1.12146 23.2019 1.87463 23.978 2.8037 23.978H8.97193C9.901 23.978 10.6542 23.2019 10.6542 22.2446V15.8891C10.6542 14.9318 9.901 14.1558 8.97193 14.1558Z" fill="#0E0A32"/>
</g>
<g filter="url(#filter3_d)">
<path d="M27.1962 14.1558H21.0279C20.0989 14.1558 19.3457 14.9318 19.3457 15.8891V22.2446C19.3457 23.2019 20.0989 23.978 21.0279 23.978H27.1962C28.1252 23.978 28.8784 23.2019 28.8784 22.2446V15.8891C28.8784 14.9318 28.1252 14.1558 27.1962 14.1558Z" fill="#0E0A32"/>
</g>
</g>
<defs>
<filter id="filter0_d" x="-0.87854" y="-1.71094" width="13.5327" height="13.8222" filterUnits="userSpaceOnUse" color-interpolation-filters="sRGB">
<feFlood flood-opacity="0" result="BackgroundImageFix"/>
<feColorMatrix in="SourceAlpha" type="matrix" values="0 0 0 0 0 0 0 0 0 0 0 0 0 0 0 0 0 0 127 0"/>
<feOffset/>
<feGaussianBlur stdDeviation="1"/>
<feColorMatrix type="matrix" values="0 0 0 0 0 0 0 0 0 0 0 0 0 0 0 0 0 0 0.25 0"/>
<feBlend mode="normal" in2="BackgroundImageFix" result="effect1_dropShadow"/>
<feBlend mode="normal" in="SourceGraphic" in2="effect1_dropShadow" result="shape"/>
</filter>
<filter id="filter1_d" x="17.3457" y="-1.71094" width="13.5327" height="13.8222" filterUnits="userSpaceOnUse" color-interpolation-filters="sRGB">
<feFlood flood-opacity="0" result="BackgroundImageFix"/>
<feColorMatrix in="SourceAlpha" type="matrix" values="0 0 0 0 0 0 0 0 0 0 0 0 0 0 0 0 0 0 127 0"/>
<feOffset/>
<feGaussianBlur stdDeviation="1"/>
<feColorMatrix type="matrix" values="0 0 0 0 0 0 0 0 0 0 0 0 0 0 0 0 0 0 0.25 0"/>
<feBlend mode="normal" in2="BackgroundImageFix" result="effect1_dropShadow"/>
<feBlend mode="normal" in="SourceGraphic" in2="effect1_dropShadow" result="shape"/>
</filter>
<filter id="filter2_d" x="-0.87854" y="12.1558" width="13.5327" height="13.8222" filterUnits="userSpaceOnUse" color-interpolation-filters="sRGB">
<feFlood flood-opacity="0" result="BackgroundImageFix"/>
<feColorMatrix in="SourceAlpha" type="matrix" values="0 0 0 0 0 0 0 0 0 0 0 0 0 0 0 0 0 0 127 0"/>
<feOffset/>
<feGaussianBlur stdDeviation="1"/>
<feColorMatrix type="matrix" values="0 0 0 0 0 0 0 0 0 0 0 0 0 0 0 0 0 0 0.25 0"/>
<feBlend mode="normal" in2="BackgroundImageFix" result="effect1_dropShadow"/>
<feBlend mode="normal" in="SourceGraphic" in2="effect1_dropShadow" result="shape"/>
</filter>
<filter id="filter3_d" x="17.3457" y="12.1558" width="13.5327" height="13.8222" filterUnits="userSpaceOnUse" color-interpolation-filters="sRGB">
<feFlood flood-opacity="0" result="BackgroundImageFix"/>
<feColorMatrix in="SourceAlpha" type="matrix" values="0 0 0 0 0 0 0 0 0 0 0 0 0 0 0 0 0 0 127 0"/>
<feOffset/>
<feGaussianBlur stdDeviation="1"/>
<feColorMatrix type="matrix" values="0 0 0 0 0 0 0 0 0 0 0 0 0 0 0 0 0 0 0.25 0"/>
<feBlend mode="normal" in2="BackgroundImageFix" result="effect1_dropShadow"/>
<feBlend mode="normal" in="SourceGraphic" in2="effect1_dropShadow" result="shape"/>
</filter>
<clipPath id="clip0">
<rect width="30" height="26" fill="white"/>
</clipPath>
</defs>
</svg>
